// Vitest Snapshot v1

exports[`<Field /> > Should Match The Snapshot 1`] = `
<div>
  <div
    class="field undefined"
  >
    
    <input
      id="field"
      name="field"
      type="text"
    />
  </div>
</div>
`;
